<?xml version="1.0" encoding="utf-8"?>
<!-- Generator: Adobe Illustrator 26.0.3, SVG Export Plug-In . SVG Version: 6.00 Build 0)  -->
<svg version="1.1" id="Capa_1" xmlns="http://www.w3.org/2000/svg" xmlns:xlink="http://www.w3.org/1999/xlink" x="0px" y="0px"
	 viewBox="0 0 60 78" style="enable-background:new 0 0 60 78;" xml:space="preserve">
<style type="text/css">
	.st0{fill:#141B4D;}
	.st1{fill:#FFFFFF;}
</style>
<g>
	<path class="st0" d="M30,0C13.459,0,0,13.46,0,30c0,19.022,26.739,45.982,27.88,47.121C28.464,77.708,29.233,78,30,78
		c0.768,0,1.536-0.292,2.121-0.879C33.261,75.982,60,49.022,60,30C60,13.46,46.541,0,30,0"/>
	<path class="st1" d="M16.356,42.281h9.812V18.133c10.537,2.977,18.283,12.672,18.283,24.148h1.905c0-14.889-12.112-27-27-27h-3
		V42.281z"/>
</g>
</svg>
