<?xml version="1.0" encoding="utf-8"?>
<!-- Generator: Adobe Illustrator 26.0.3, SVG Export Plug-In . SVG Version: 6.00 Build 0)  -->
<svg version="1.1" id="Capa_1" xmlns="http://www.w3.org/2000/svg" xmlns:xlink="http://www.w3.org/1999/xlink" x="0px" y="0px"
	 viewBox="0 0 60 60" style="enable-background:new 0 0 60 60;" xml:space="preserve">
<style type="text/css">
	.st0{fill:none;stroke:#000000;stroke-width:1.5;stroke-miterlimit:10;}
</style>
<g>
	<g>
		<path class="st0" d="M17.485,30H1.192 M58.809,30H42.515 M30,42.515v16.294 M30,1.191v16.294 M30,25.138v9.724 M25.139,30h9.723
			 M51.53,30c0,11.89-9.639,21.529-21.53,21.529C18.11,51.529,8.471,41.89,8.471,30S18.11,8.471,30,8.471
			C41.891,8.471,51.53,18.11,51.53,30z"/>
	</g>
</g>
</svg>
